project/pd2/verif/scripts/test2.vcd
$date
	Mon Feb  9 20:17:27 2026
$end
$version
	ModelSim Version 2020.1
$end
$timescale
	1ps
$end

$scope module top $end
$var wire 1 ! clock $end
$var wire 1 " reset $end

$scope module clkg $end
$var reg 1 # clk $end
$var reg 1 $ rst $end
$var integer 32 % counter $end
$upscope $end

$scope module dut $end
$var wire 1 ! clk $end
$var wire 1 " reset $end

$scope module core $end
$var parameter 32 & AWIDTH $end
$var parameter 32 ' DWIDTH $end
$var wire 1 ! clk $end
$var wire 1 " reset $end
$var reg 32 ( FETCH_PC_O [31:0] $end
$var reg 32 ) FETCH_INSN_O [31:0] $end
$var reg 32 * MEM_ADDR_I [31:0] $end
$var reg 32 + MEM_DATA_O [31:0] $end
$var reg 1 , MEM_DATA_VLD_O $end
$var reg 32 - assign_d_pc [31:0] $end
$var reg 32 . assign_f_pc [31:0] $end
$var reg 32 / assign_d_insn_o [31:0] $end
$var reg 32 0 assign_f_insn [31:0] $end
$var reg 7 1 assign_d_opcode [6:0] $end
$var reg 5 2 assign_d_rd [4:0] $end
$var reg 5 3 assign_d_rs1 [4:0] $end
$var reg 5 4 assign_d_rs2 [4:0] $end
$var reg 5 5 assign_d_shamt [4:0] $end
$var reg 7 6 assign_d_funct7 [6:0] $end
$var reg 3 7 assign_d_funct3 [2:0] $end
$var reg 32 8 assign_d_imm [31:0] $end
$var reg 32 9 assign_i_imm [31:0] $end
$var reg 1 : pcsel $end
$var reg 1 ; immsel $end
$var reg 1 < regwren $end
$var reg 1 = rs1sel $end
$var reg 1 > rs2sel $end
$var reg 1 ? memren $end
$var reg 1 @ memwren $end
$var reg 2 A wbsel [1:0] $end
$var reg 4 B alusel [3:0] $end

$scope module fetch_inst $end
$var parameter 32 C DWIDTH $end
$var parameter 32 D AWIDTH $end
$var parameter 32 E BASEADDR $end
$var wire 1 ! clk $end
$var wire 1 " rst $end
$var reg 32 F pc_o [31:0] $end
$var reg 32 G insn_o [31:0] $end
$var reg 32 H pc_reg [31:0] $end
$upscope $end

$scope module imem $end
$var parameter 32 I AWIDTH $end
$var parameter 32 J DWIDTH $end
$var parameter 32 K BASE_ADDR $end
$var wire 1 ! clk $end
$var wire 1 " rst $end
$var wire 1 L addr_i [31] $end
$var wire 1 M addr_i [30] $end
$var wire 1 N addr_i [29] $end
$var wire 1 O addr_i [28] $end
$var wire 1 P addr_i [27] $end
$var wire 1 Q addr_i [26] $end
$var wire 1 R addr_i [25] $end
$var wire 1 S addr_i [24] $end
$var wire 1 T addr_i [23] $end
$var wire 1 U addr_i [22] $end
$var wire 1 V addr_i [21] $end
$var wire 1 W addr_i [20] $end
$var wire 1 X addr_i [19] $end
$var wire 1 Y addr_i [18] $end
$var wire 1 Z addr_i [17] $end
$var wire 1 [ addr_i [16] $end
$var wire 1 \ addr_i [15] $end
$var wire 1 ] addr_i [14] $end
$var wire 1 ^ addr_i [13] $end
$var wire 1 _ addr_i [12] $end
$var wire 1 ` addr_i [11] $end
$var wire 1 a addr_i [10] $end
$var wire 1 b addr_i [9] $end
$var wire 1 c addr_i [8] $end
$var wire 1 d addr_i [7] $end
$var wire 1 e addr_i [6] $end
$var wire 1 f addr_i [5] $end
$var wire 1 g addr_i [4] $end
$var wire 1 h addr_i [3] $end
$var wire 1 i addr_i [2] $end
$var wire 1 j addr_i [1] $end
$var wire 1 k addr_i [0] $end
$var wire 1 l data_i [31] $end
$var wire 1 m data_i [30] $end
$var wire 1 n data_i [29] $end
$var wire 1 o data_i [28] $end
$var wire 1 p data_i [27] $end
$var wire 1 q data_i [26] $end
$var wire 1 r data_i [25] $end
$var wire 1 s data_i [24] $end
$var wire 1 t data_i [23] $end
$var wire 1 u data_i [22] $end
$var wire 1 v data_i [21] $end
$var wire 1 w data_i [20] $end
$var wire 1 x data_i [19] $end
$var wire 1 y data_i [18] $end
$var wire 1 z data_i [17] $end
$var wire 1 { data_i [16] $end
$var wire 1 | data_i [15] $end
$var wire 1 } data_i [14] $end
$var wire 1 ~ data_i [13] $end
$var wire 1 !! data_i [12] $end
$var wire 1 "! data_i [11] $end
$var wire 1 #! data_i [10] $end
$var wire 1 $! data_i [9] $end
$var wire 1 %! data_i [8] $end
$var wire 1 &! data_i [7] $end
$var wire 1 '! data_i [6] $end
$var wire 1 (! data_i [5] $end
$var wire 1 )! data_i [4] $end
$var wire 1 *! data_i [3] $end
$var wire 1 +! data_i [2] $end
$var wire 1 ,! data_i [1] $end
$var wire 1 -! data_i [0] $end
$var wire 1 .! read_en_i $end
$var wire 1 /! write_en_i $end
$var reg 32 0! data_o [31:0] $end
$var reg 32 1! address [31:0] $end
$upscope $end

$scope module decode_inst $end
$var parameter 32 2! DWIDTH $end
$var parameter 32 3! AWIDTH $end
$var wire 1 ! clk $end
$var wire 1 " rst $end
$var wire 1 4! insn_i [31] $end
$var wire 1 5! insn_i [30] $end
$var wire 1 6! insn_i [29] $end
$var wire 1 7! insn_i [28] $end
$var wire 1 8! insn_i [27] $end
$var wire 1 9! insn_i [26] $end
$var wire 1 :! insn_i [25] $end
$var wire 1 ;! insn_i [24] $end
$var wire 1 <! insn_i [23] $end
$var wire 1 =! insn_i [22] $end
$var wire 1 >! insn_i [21] $end
$var wire 1 ?! insn_i [20] $end
$var wire 1 @! insn_i [19] $end
$var wire 1 A! insn_i [18] $end
$var wire 1 B! insn_i [17] $end
$var wire 1 C! insn_i [16] $end
$var wire 1 D! insn_i [15] $end
$var wire 1 E! insn_i [14] $end
$var wire 1 F! insn_i [13] $end
$var wire 1 G! insn_i [12] $end
$var wire 1 H! insn_i [11] $end
$var wire 1 I! insn_i [10] $end
$var wire 1 J! insn_i [9] $end
$var wire 1 K! insn_i [8] $end
$var wire 1 L! insn_i [7] $end
$var wire 1 M! insn_i [6] $end
$var wire 1 N! insn_i [5] $end
$var wire 1 O! insn_i [4] $end
$var wire 1 P! insn_i [3] $end
$var wire 1 Q! insn_i [2] $end
$var wire 1 R! insn_i [1] $end
$var wire 1 S! insn_i [0] $end
$var wire 1 T! pc_i [31] $end
$var wire 1 U! pc_i [30] $end
$var wire 1 V! pc_i [29] $end
$var wire 1 W! pc_i [28] $end
$var wire 1 X! pc_i [27] $end
$var wire 1 Y! pc_i [26] $end
$var wire 1 Z! pc_i [25] $end
$var wire 1 [! pc_i [24] $end
$var wire 1 \! pc_i [23] $end
$var wire 1 ]! pc_i [22] $end
$var wire 1 ^! pc_i [21] $end
$var wire 1 _! pc_i [20] $end
$var wire 1 `! pc_i [19] $end
$var wire 1 a! pc_i [18] $end
$var wire 1 b! pc_i [17] $end
$var wire 1 c! pc_i [16] $end
$var wire 1 d! pc_i [15] $end
$var wire 1 e! pc_i [14] $end
$var wire 1 f! pc_i [13] $end
$var wire 1 g! pc_i [12] $end
$var wire 1 h! pc_i [11] $end
$var wire 1 i! pc_i [10] $end
$var wire 1 j! pc_i [9] $end
$var wire 1 k! pc_i [8] $end
$var wire 1 l! pc_i [7] $end
$var wire 1 m! pc_i [6] $end
$var wire 1 n! pc_i [5] $end
$var wire 1 o! pc_i [4] $end
$var wire 1 p! pc_i [3] $end
$var wire 1 q! pc_i [2] $end
$var wire 1 r! pc_i [1] $end
$var wire 1 s! pc_i [0] $end
$var reg 32 t! pc_o [31:0] $end
$var reg 32 u! insn_o [31:0] $end
$var reg 7 v! opcode_o [6:0] $end
$var reg 5 w! rd_o [4:0] $end
$var reg 5 x! rs1_o [4:0] $end
$var reg 5 y! rs2_o [4:0] $end
$var reg 7 z! funct7_o [6:0] $end
$var reg 3 {! funct3_o [2:0] $end
$var reg 5 |! shamt_o [4:0] $end
$var reg 32 }! imm_o [31:0] $end
$var reg 3 ~! funct3_r [2:0] $end
$var reg 5 !" rs1_r [4:0] $end
$var reg 5 "" rs2_r [4:0] $end
$var reg 5 #" shamt_r [4:0] $end
$var reg 5 $" rd_r [4:0] $end
$var reg 7 %" opcode_w [6:0] $end
$var reg 7 &" funct7_r [6:0] $end
$var reg 32 '" imm_r [31:0] $end
$upscope $end

$scope module control_inst $end
$var parameter 32 (" DWIDTH $end
$var wire 1 )" insn_i [31] $end
$var wire 1 *" insn_i [30] $end
$var wire 1 +" insn_i [29] $end
$var wire 1 ," insn_i [28] $end
$var wire 1 -" insn_i [27] $end
$var wire 1 ." insn_i [26] $end
$var wire 1 /" insn_i [25] $end
$var wire 1 0" insn_i [24] $end
$var wire 1 1" insn_i [23] $end
$var wire 1 2" insn_i [22] $end
$var wire 1 3" insn_i [21] $end
$var wire 1 4" insn_i [20] $end
$var wire 1 5" insn_i [19] $end
$var wire 1 6" insn_i [18] $end
$var wire 1 7" insn_i [17] $end
$var wire 1 8" insn_i [16] $end
$var wire 1 9" insn_i [15] $end
$var wire 1 :" insn_i [14] $end
$var wire 1 ;" insn_i [13] $end
$var wire 1 <" insn_i [12] $end
$var wire 1 =" insn_i [11] $end
$var wire 1 >" insn_i [10] $end
$var wire 1 ?" insn_i [9] $end
$var wire 1 @" insn_i [8] $end
$var wire 1 A" insn_i [7] $end
$var wire 1 B" insn_i [6] $end
$var wire 1 C" insn_i [5] $end
$var wire 1 D" insn_i [4] $end
$var wire 1 E" insn_i [3] $end
$var wire 1 F" insn_i [2] $end
$var wire 1 G" insn_i [1] $end
$var wire 1 H" insn_i [0] $end
$var wire 1 I" opcode_i [6] $end
$var wire 1 J" opcode_i [5] $end
$var wire 1 K" opcode_i [4] $end
$var wire 1 L" opcode_i [3] $end
$var wire 1 M" opcode_i [2] $end
$var wire 1 N" opcode_i [1] $end
$var wire 1 O" opcode_i [0] $end
$var wire 1 P" funct7_i [6] $end
$var wire 1 Q" funct7_i [5] $end
$var wire 1 R" funct7_i [4] $end
$var wire 1 S" funct7_i [3] $end
$var wire 1 T" funct7_i [2] $end
$var wire 1 U" funct7_i [1] $end
$var wire 1 V" funct7_i [0] $end
$var wire 1 W" funct3_i [2] $end
$var wire 1 X" funct3_i [1] $end
$var wire 1 Y" funct3_i [0] $end
$var reg 1 Z" pcsel_o $end
$var reg 1 [" immsel_o $end
$var reg 1 \" regwren_o $end
$var reg 1 ]" rs1sel_o $end
$var reg 1 ^" rs2sel_o $end
$var reg 1 _" memren_o $end
$var reg 1 `" memwren_o $end
$var reg 2 a" wbsel_o [1:0] $end
$var reg 4 b" alusel_o [3:0] $end
$upscope $end

$scope module igen_inst $end
$var parameter 32 c" DWIDTH $end
$var wire 1 d" opcode_i [6] $end
$var wire 1 e" opcode_i [5] $end
$var wire 1 f" opcode_i [4] $end
$var wire 1 g" opcode_i [3] $end
$var wire 1 h" opcode_i [2] $end
$var wire 1 i" opcode_i [1] $end
$var wire 1 j" opcode_i [0] $end
$var wire 1 k" insn_i [31] $end
$var wire 1 l" insn_i [30] $end
$var wire 1 m" insn_i [29] $end
$var wire 1 n" insn_i [28] $end
$var wire 1 o" insn_i [27] $end
$var wire 1 p" insn_i [26] $end
$var wire 1 q" insn_i [25] $end
$var wire 1 r" insn_i [24] $end
$var wire 1 s" insn_i [23] $end
$var wire 1 t" insn_i [22] $end
$var wire 1 u" insn_i [21] $end
$var wire 1 v" insn_i [20] $end
$var wire 1 w" insn_i [19] $end
$var wire 1 x" insn_i [18] $end
$var wire 1 y" insn_i [17] $end
$var wire 1 z" insn_i [16] $end
$var wire 1 {" insn_i [15] $end
$var wire 1 |" insn_i [14] $end
$var wire 1 }" insn_i [13] $end
$var wire 1 ~" insn_i [12] $end
$var wire 1 !# insn_i [11] $end
$var wire 1 "# insn_i [10] $end
$var wire 1 ## insn_i [9] $end
$var wire 1 $# insn_i [8] $end
$var wire 1 %# insn_i [7] $end
$var wire 1 &# insn_i [6] $end
$var wire 1 '# insn_i [5] $end
$var wire 1 (# insn_i [4] $end
$var wire 1 )# insn_i [3] $end
$var wire 1 *# insn_i [2] $end
$var wire 1 +# insn_i [1] $end
$var wire 1 ,# insn_i [0] $end
$var reg 32 -# imm_o [31:0] $end
$var reg 12 .# store_holder [11:0] $end
$var reg 13 /# branch_holder [12:0] $end
$var reg 21 0# jump_holder [20:0] $end
$upscope $end
$upscope $end
$upscope $end

$scope begin genblk3 $end
$var integer 32 1# tick $end

$scope begin pre_check $end
$var integer 32 2# res $end
$upscope $end

$scope begin tick_check $end
$var reg 1 3# res $end
$var reg 1 4# tick_ok $end
$var reg 1 5# correct $end
$var reg 4096 6# msg [4095:0] $end
$upscope $end

$scope task check_F $end
$var integer 32 7# idx $end
$var reg 1 8# res $end
$var reg 4096 9# msg [4095:0] $end

$scope begin check_F_func $end
$var reg 32 :# pc [31:0] $end
$var reg 32 ;# insn [31:0] $end
$var reg 128 <# p [127:0] $end
$upscope $end
$upscope $end

$scope task check_D $end
$var integer 32 =# idx $end
$var reg 1 ># res $end
$var reg 4096 ?# msg [4095:0] $end

$scope begin check_D_func $end
$var reg 32 @# pc [31:0] $end
$var reg 7 A# opcode [6:0] $end
$var reg 5 B# rd [4:0] $end
$var reg 5 C# rs1 [4:0] $end
$var reg 5 D# rs2 [4:0] $end
$var reg 3 E# funct3 [2:0] $end
$var reg 7 F# funct7 [6:0] $end
$var reg 32 G# imm [31:0] $end
$var reg 5 H# shamt [4:0] $end
$var reg 128 I# p [127:0] $end
$var reg 224 J# t [223:0] $end
$upscope $end
$upscope $end
$upscope $end
$upscope $end
$enddefinitions $end
#0
$dumpvars
0#
x$
bx (
bx )
bx *
bx +
x,
bx -
bx .
bx /
bx 0
bx 1
b0 2
b0 3
b0 4
b0 5
b0 6
b0 7
b0 8
b0 9
0:
0;
0<
0=
0>
0?
0@
b0 A
b0 B
bx F
bx G
bx H
bx 0!
bx 1!
bx t!
bx u!
bx v!
b0 w!
b0 x!
b0 y!
b0 z!
b0 {!
b0 |!
b0 }!
b0 ~!
b0 !"
b0 ""
b0 #"
b0 $"
bx %"
b0 &"
b0 '"
0Z"
0["
0\"
0]"
0^"
0_"
0`"
b0 a"
b0 b"
b0 -#
bx .#
bx /#
bx 0#
13#
x4#
15#
bx 6#
18#
bx 9#
bx :#
bx ;#
bx <#
1>#
bx ?#
bx @#
bx A#
bx B#
bx C#
bx D#
bx E#
bx F#
bx G#
bx H#
bx I#
bx J#
b100000 &
b100000 '
b100000 C
b100000 D
b1000000000000000000000000 E
b100000 I
b100000 J
b1000000000000000000000000 K
b100000 2!
b100000 3!
b100000 ("
b100000 c"
b0 %
bx 2#
bx 1#
bx 7#
bx =#
0!
x"
0/!
1.!
0-!
0,!
0+!
0*!
0)!
0(!
0'!
0&!
0%!
0$!
0#!
0"!
0!!
0~
0}
0|
0{
0z
0y
0x
0w
0v
0u
0t
0s
0r
0q
0p
0o
0n
0m
0l
xk
xj
xi
xh
xg
xf
xe
xd
xc
xb
xa
x`
x_
x^
x]
x\
x[
xZ
xY
xX
xW
xV
xU
xT
xS
xR
xQ
xP
xO
xN
xM
xL
xS!
xR!
xQ!
xP!
xO!
xN!
xM!
xL!
xK!
xJ!
xI!
xH!
xG!
xF!
xE!
xD!
xC!
xB!
xA!
x@!
x?!
x>!
x=!
x<!
x;!
x:!
x9!
x8!
x7!
x6!
x5!
x4!
xs!
xr!
xq!
xp!
xo!
xn!
xm!
xl!
xk!
xj!
xi!
xh!
xg!
xf!
xe!
xd!
xc!
xb!
xa!
x`!
x_!
x^!
x]!
x\!
x[!
xZ!
xY!
xX!
xW!
xV!
xU!
xT!
xH"
xG"
xF"
xE"
xD"
xC"
xB"
xA"
x@"
x?"
x>"
x="
x<"
x;"
x:"
x9"
x8"
x7"
x6"
x5"
x4"
x3"
x2"
x1"
x0"
x/"
x."
x-"
x,"
x+"
x*"
x)"
xO"
xN"
xM"
xL"
xK"
xJ"
xI"
0V"
0U"
0T"
0S"
0R"
0Q"
0P"
0Y"
0X"
0W"
xj"
xi"
xh"
xg"
xf"
xe"
xd"
x,#
x+#
x*#
x)#
x(#
x'#
x&#
x%#
x$#
x##
x"#
x!#
x~"
x}"
x|"
x{"
xz"
xy"
xx"
xw"
xv"
xu"
xt"
xs"
xr"
xq"
xp"
xo"
xn"
xm"
xl"
xk"
$end
#1
1#
1!
b1 %
1$
1"
b0 0!
b0 +
b0 )
b0 0
0S!
0R!
0Q!
0P!
0O!
0N!
0M!
0L!
0K!
0J!
0I!
0H!
0G!
0F!
0E!
0D!
0C!
0B!
0A!
0@!
0?!
0>!
0=!
0<!
0;!
0:!
09!
08!
07!
06!
05!
04!
b0 %"
b0 u!
b0 /
b0 v!
b0 1
0H"
0G"
0F"
0E"
0D"
0C"
0B"
0A"
0@"
0?"
0>"
0="
0<"
0;"
0:"
09"
08"
07"
06"
05"
04"
03"
02"
01"
00"
0/"
0."
0-"
0,"
0+"
0*"
0)"
0,#
0+#
0*#
0)#
0(#
0'#
0&#
0%#
0$#
0##
0"#
0!#
0~"
0}"
0|"
0{"
0z"
0y"
0x"
0w"
0v"
0u"
0t"
0s"
0r"
0q"
0p"
0o"
0n"
0m"
0l"
0k"
0O"
0N"
0M"
0L"
0K"
0J"
0I"
0j"
0i"
0h"
0g"
0f"
0e"
0d"
#2
0#
0!
b0 1#
#3
1#
1!
b1000000000000000000000000 H
b10 %
b1000000000000000000000000 F
b1000000000000000000000000 (
b1000000000000000000000000 .
b1000000000000000000000000 *
0s!
0r!
0q!
0p!
0o!
0n!
0m!
0l!
0k!
0j!
0i!
0h!
0g!
0f!
0e!
0d!
0c!
0b!
0a!
0`!
0_!
0^!
0]!
0\!
1[!
0Z!
0Y!
0X!
0W!
0V!
0U!
0T!
b1000000000000000000000000 t!
0k
0j
0i
0h
0g
0f
0e
0d
0c
0b
0a
0`
0_
0^
0]
0\
0[
0Z
0Y
0X
0W
0V
0U
0T
1S
0R
0Q
0P
0O
0N
0M
0L
b0 1!
b1000000000000000000000000 -
#4
0#
0!
#5
1#
1!
b11 %
#6
0#
0!
#7
1#
1!
b100 %
#8
0#
0!
#9
1#
1!
b101 %
#10
0#
0!
#11
1#
1!
b110 %
0$
0"
b10011 0!
b100010011 0!
b10000000100010011 0!
b11111110000000010000000100010011 0!
b11111110000000010000000100010011 +
b11111110000000010000000100010011 )
b11111110000000010000000100010011 0
1S!
1R!
1O!
1K!
1C!
1:!
19!
18!
17!
16!
15!
14!
b10011 %"
b11111110000000010000000100010011 u!
b11111110000000010000000100010011 /
b10011 v!
b10011 1
1H"
1G"
1D"
1@"
18"
1/"
1."
1-"
1,"
1+"
1*"
1)"
1,#
1+#
1(#
1$#
1z"
1q"
1p"
1o"
1n"
1m"
1l"
1k"
1O"
1N"
1K"
1j"
1i"
1f"
1\"
1^"
1["
b11111111111111111111111111100000 -#
b10 $"
b10 !"
b11111111111111111111111111100000 '"
b11111111111111111111111111100000 }!
b10 x!
b10 w!
b11111111111111111111111111100000 9
1;
1>
1<
b10 2
b10 3
b11111111111111111111111111100000 8
#12
0#
0!
b0 7#
b1111111000000001000000010001001100000001000000000000000000000000 <#
b1000000000000000000000000 :#
b11111110000000010000000100010011 ;#
b0 =#
b111111111111111111111111111000000000000000000000001000010001001100000001000000000000000000000000 I#
b1000000000000000000000000 @#
b10011 A#
b10 B#
b10 C#
b0 D#
b0 E#
b0 F#
b11111111111111111111111111100000 G#
b1 1#
#13
1#
1!
b1000000000000000000000100 H
b111 %
b1000000000000000000000100 F
b1000000000000000000000100 (
b1000000000000000000000100 .
b1000000000000000000000100 *
1q!
b1000000000000000000000100 t!
1i
b100 1!
b1000000000000000000000100 -
b11111110000000010000000100100011 0!
b11111110000000010010111000100011 0!
b11111110000100010010111000100011 0!
b100010010111000100011 0!
b100010010111000100011 +
b100010010111000100011 )
b100010010111000100011 0
0O!
1N!
0K!
1J!
1I!
1H!
1F!
1?!
0:!
09!
08!
07!
06!
05!
04!
b100011 %"
b100010010111000100011 u!
b100010010111000100011 /
b100011 v!
b100011 1
0D"
1C"
0@"
1?"
1>"
1="
1;"
14"
0/"
0."
0-"
0,"
0+"
0*"
0)"
0(#
1'#
0$#
1##
1"#
1!#
1}"
1v"
0q"
0p"
0o"
0n"
0m"
0l"
0k"
0K"
1J"
0f"
1e"
0["
0\"
0^"
1^"
1["
1`"
b11100 .#
b11100 -#
b0 $"
b0 !"
b0 '"
b10 ~!
b10 !"
b1 ""
b11100 '"
b1 y!
b10 {!
b11100 }!
b0 w!
b11100 9
1@
0<
b0 2
b11100 8
b10 7
b1 4
1X"
0["
0^"
0`"
1^"
1["
1`"
#14
0#
0!
b1 7#
b10001001011100010001100000001000000000000000000000100 <#
b1000000000000000000000100 :#
b100010010111000100011 ;#
b1 =#
b111000000000010000010001000000010001100000001000000000000000000000100 I#
b1000000000000000000000100 @#
b100011 A#
b0 B#
b1 D#
b10 E#
b11100 G#
b10 1#
#15
1#
1!
b1000000000000000000001000 H
b1000 %
b1000000000000000000001000 F
b1000000000000000000001000 (
b1000000000000000000001000 .
b1000000000000000000001000 *
0q!
1p!
b1000000000000000000001000 t!
0i
1h
b1000 1!
b1000000000000000000001000 -
b100010010111010010011 0!
b100010000011110010011 0!
b1100000000011110010011 0!
b1100000000011110010011 +
b1100000000011110010011 )
b1100000000011110010011 0
1O!
0N!
1L!
1K!
0H!
0F!
0C!
1>!
b10011 %"
b1100000000011110010011 u!
b1100000000011110010011 /
b10011 v!
b10011 1
1D"
0C"
1A"
1@"
0="
0;"
08"
13"
1(#
0'#
1%#
1$#
0!#
0}"
0z"
1u"
1K"
0J"
1f"
0e"
0["
0^"
0`"
1\"
1^"
1["
b1000 b"
b11 -#
b0 !"
b0 ""
b0 ~!
b0 '"
b1111 $"
b11 '"
b1111 w!
b11 }!
b0 {!
b0 y!
b0 x!
b11 9
b1000 B
1<
0@
b0 3
b0 4
b0 7
b11 8
b1111 2
0X"
0["
0\"
0^"
b0 b"
1\"
1^"
1["
b0 B
#16
0#
0!
b10 7#
b110000000001111001001100000001000000000000000000001000 <#
b1000000000000000000001000 :#
b1100000000011110010011 ;#
b10 =#
b110000000000000000000001111001001100000001000000000000000000001000 I#
b1000000000000000000001000 @#
b10011 A#
b1111 B#
b0 C#
b0 D#
b0 E#
b11 G#
b11 1#
#17
1#
1!
b1000000000000000000001100 H
b1001 %
b1000000000000000000001100 F
b1000000000000000000001100 (
b1000000000000000000001100 .
b1000000000000000000001100 *
1q!
b1000000000000000000001100 t!
1i
b1100 1!
b1000000000000000000001100 -
b1100000000011100100011 0!
b1100000010011000100011 0!
b111100010010011000100011 0!
b111100010010011000100011 +
b111100010010011000100011 )
b111100010010011000100011 0
0O!
1N!
0L!
0K!
1F!
1C!
1=!
1<!
b100011 %"
b111100010010011000100011 u!
b111100010010011000100011 /
b100011 v!
b100011 1
0D"
1C"
0A"
0@"
1;"
18"
12"
11"
0(#
1'#
0%#
0$#
1}"
1z"
1t"
1s"
0K"
1J"
0f"
1e"
0["
0\"
0^"
1^"
1["
1`"
b1100 .#
b1100 -#
b0 $"
b0 '"
b10 ~!
b10 !"
b1111 ""
b1100 '"
b1111 y!
b10 x!
b10 {!
b1100 }!
b0 w!
b1100 9
1@
0<
b0 2
b1100 8
b10 7
b10 3
b1111 4
1X"
0["
0^"
0`"
1^"
1["
1`"
#18
0#
0!
b11 7#
b11110001001001100010001100000001000000000000000000001100 <#
b1000000000000000000001100 :#
b111100010010011000100011 ;#
b11 =#
b11000000000010011110001000000010001100000001000000000000000000001100 I#
b1000000000000000000001100 @#
b100011 A#
b0 B#
b10 C#
b1111 D#
b10 E#
b1100 G#
b100 1#
#19
1#
1!
b1000000000000000000010000 H
b1010 %
b1000000000000000000010000 F
b1000000000000000000010000 (
b1000000000000000000010000 .
b1000000000000000000010000 *
0q!
0p!
1o!
b1000000000000000000010000 t!
0i
0h
1g
b10000 1!
b1000000000000000000010000 -
b111100010010011010010011 0!
b111100010000011110010011 0!
b1000000000011110010011 0!
b1000000000011110010011 +
b1000000000011110010011 )
b1000000000011110010011 0
1O!
0N!
1L!
1K!
0F!
0C!
0?!
0=!
0<!
b10011 %"
b1000000000011110010011 u!
b1000000000011110010011 /
b10011 v!
b10011 1
1D"
0C"
1A"
1@"
0;"
08"
04"
02"
01"
1(#
0'#
1%#
1$#
0}"
0z"
0v"
0t"
0s"
1K"
0J"
1f"
0e"
0["
0^"
0`"
1\"
1^"
1["
b1000 b"
b10 -#
b0 !"
b0 ""
b0 ~!
b0 '"
b1111 $"
b10 '"
b1111 w!
b10 }!
b0 {!
b0 y!
b0 x!
b10 9
b1000 B
1<
0@
b0 3
b0 4
b0 7
b10 8
b1111 2
0X"
0["
0\"
0^"
b0 b"
1\"
1^"
1["
b0 B
#20
0#
0!
b100 7#
b100000000001111001001100000001000000000000000000010000 <#
b1000000000000000000010000 :#
b1000000000011110010011 ;#
b100 =#
b100000000000000000000001111001001100000001000000000000000000010000 I#
b1000000000000000000010000 @#
b10011 A#
b1111 B#
b0 C#
b0 D#
b0 E#
b10 G#
b101 1#
#21
1#
1!
b1000000000000000000010100 H
b1011 %
b1000000000000000000010100 F
b1000000000000000000010100 (
b1000000000000000000010100 .
b1000000000000000000010100 *
1q!
b1000000000000000000010100 t!
1i
b10100 1!
b1000000000000000000010100 -
b1000000000011100100011 0!
b1000000010010000100011 0!
b111100010010010000100011 0!
b111100010010010000100011 +
b111100010010010000100011 )
b111100010010010000100011 0
0O!
1N!
0L!
0K!
0J!
1F!
1C!
1?!
1=!
1<!
b100011 %"
b111100010010010000100011 u!
b111100010010010000100011 /
b100011 v!
b100011 1
0D"
1C"
0A"
0@"
0?"
1;"
18"
14"
12"
11"
0(#
1'#
0%#
0$#
0##
1}"
1z"
1v"
1t"
1s"
0K"
1J"
0f"
1e"
0["
0\"
0^"
1^"
1["
1`"
b1000 .#
b1000 -#
b0 $"
b0 '"
b10 ~!
b10 !"
b1111 ""
b1000 '"
b1111 y!
b10 x!
b10 {!
b1000 }!
b0 w!
b1000 9
1@
0<
b0 2
b1000 8
b10 7
b10 3
b1111 4
1X"
0["
0^"
0`"
1^"
1["
1`"
#22
0#
0!
b101 7#
b11110001001001000010001100000001000000000000000000010100 <#
b1000000000000000000010100 :#
b111100010010010000100011 ;#
b101 =#
b10000000000010011110001000000010001100000001000000000000000000010100 I#
b1000000000000000000010100 @#
b100011 A#
b0 B#
b10 C#
b1111 D#
b10 E#
b1000 G#
b110 1#
#23
1#
1!
b1000000000000000000011000 H
b1100 %
b1000000000000000000011000 F
b1000000000000000000011000 (
b1000000000000000000011000 .
b1000000000000000000011000 *
0q!
1p!
b1000000000000000000011000 t!
0i
1h
b11000 1!
b1000000000000000000011000 -
b111100010010001000100011 0!
b10010001000100011 0!
b10010001000100011 +
b10010001000100011 )
b10010001000100011 0
1J!
0I!
0?!
0>!
0=!
0<!
b10010001000100011 u!
b10010001000100011 /
1?"
0>"
04"
03"
02"
01"
1##
0"#
0v"
0u"
0t"
0s"
b100 .#
b100 -#
b0 !"
b0 ""
b0 ~!
b0 '"
b10 ~!
b10 !"
b100 '"
b100 }!
b0 y!
b100 9
b0 4
b100 8
#24
0#
0!
b110 7#
b1001000100010001100000001000000000000000000011000 <#
b1000000000000000000011000 :#
b10010001000100011 ;#
b110 =#
b1000000000010000000001000000010001100000001000000000000000000011000 I#
b1000000000000000000011000 @#
b0 D#
b100 G#
b111 1#
#25
1#
1!
b1000000000000000000011100 H
b1101 %
b1000000000000000000011100 F
b1000000000000000000011100 (
b1000000000000000000011100 .
b1000000000000000000011100 *
1q!
b1000000000000000000011100 t!
1i
b11100 1!
b1000000000000000000011100 -
b10010001000000011 0!
b10010011100000011 0!
b110000010010011100000011 0!
b110000010010011100000011 +
b110000010010011100000011 )
b110000010010011100000011 0
0N!
1K!
1I!
1=!
1<!
b11 %"
b110000010010011100000011 u!
b110000010010011100000011 /
b11 v!
b11 1
0C"
1@"
1>"
12"
11"
0'#
1$#
1"#
1t"
1s"
0J"
0e"
0["
0^"
0`"
1\"
1^"
1["
1_"
b1 a"
b1100 -#
b0 !"
b0 ~!
b0 '"
b1110 $"
b10 ~!
b10 !"
b1100 '"
b1110 w!
b1100 }!
b1100 9
b1 A
1?
1<
0@
b1100 8
b1110 2
#26
0#
0!
b111 7#
b11000001001001110000001100000001000000000000000000011100 <#
b1000000000000000000011100 :#
b110000010010011100000011 ;#
b111 =#
b11000000000010000000001001110000001100000001000000000000000000011100 I#
b1000000000000000000011100 @#
b11 A#
b1110 B#
b1100 G#
b1000 1#
#27
1#
1!
b1000000000000000000100000 H
b1110 %
b1000000000000000000100000 F
b1000000000000000000100000 (
b1000000000000000000100000 .
b1000000000000000000100000 *
0q!
0p!
0o!
1n!
b1000000000000000000100000 t!
0i
0h
0g
1f
b100000 1!
b1000000000000000000100000 -
b110000010010011110000011 0!
b100000010010011110000011 0!
b100000010010011110000011 +
b100000010010011110000011 )
b100000010010011110000011 0
1L!
0=!
b100000010010011110000011 u!
b100000010010011110000011 /
1A"
02"
1%#
0t"
b1000 -#
b0 $"
b0 !"
b0 ~!
b0 '"
b1111 $"
b10 ~!
b10 !"
b1000 '"
b1000 }!
b1111 w!
b1000 9
b1111 2
b1000 8
#28
0#
0!
b1000 7#
b10000001001001111000001100000001000000000000000000100000 <#
b1000000000000000000100000 :#
b100000010010011110000011 ;#
b1000 =#
b10000000000010000000001001111000001100000001000000000000000000100000 I#
b1000000000000000000100000 @#
b1111 B#
b1000 G#
b1001 1#
